<?xml version="1.0" encoding="UTF-8"?>
<glyph name="arrowleft" format="2">
	<advance width="732"/>
	<unicode hex="2190"/>
	<outline>
		<component base="arrowright" xScale="-1" xOffset="732"/>
	</outline>
</glyph>
