<?xml version="1.0" encoding="UTF-8"?>
<glyph name="Ccedilla" format="2">
	<advance width="732"/>
	<unicode hex="00C7"/>
	<outline>
		<component base="C"/>
		<component base="uni0327" xOffset="799"/>
	</outline>
</glyph>
