<?xml version="1.0" encoding="UTF-8"?>
<glyph name="ohungarumlaut" format="2">
	<advance width="732"/>
	<unicode hex="0151"/>
	<outline>
		<component base="o"/>
		<component base="uni030B" xOffset="782" yOffset="-200"/>
	</outline>
</glyph>
