<?xml version="1.0" encoding="UTF-8"?>
<glyph name="questiondown" format="2">
	<advance width="732"/>
	<unicode hex="00BF"/>
	<outline>
		<contour>
			<point x="102" y="97" type="curve" smooth="yes"/>
			<point x="163" y="36" type="line" smooth="yes"/>
			<point x="177" y="22"/>
			<point x="196" y="0"/>
			<point x="232" y="0" type="curve" smooth="yes"/>
			<point x="499" y="0" type="line" smooth="yes"/>
			<point x="536" y="0"/>
			<point x="555" y="22"/>
			<point x="569" y="36" type="curve" smooth="yes"/>
			<point x="630" y="97" type="line" smooth="yes"/>
			<point x="644" y="111"/>
			<point x="666" y="130"/>
			<point x="666" y="167" type="curve" smooth="yes"/>
			<point x="666" y="267" type="line"/>
			<point x="532" y="267" type="line"/>
			<point x="532" y="199" type="line"/>
			<point x="466" y="133" type="line"/>
			<point x="265" y="133" type="line"/>
			<point x="200" y="199" type="line"/>
			<point x="200" y="234" type="line"/>
			<point x="265" y="300" type="line"/>
			<point x="333" y="300" type="line" smooth="yes"/>
			<point x="383" y="300"/>
			<point x="433" y="350"/>
			<point x="433" y="400" type="curve" smooth="yes"/>
			<point x="433" y="457" type="line"/>
			<point x="400" y="533" type="line"/>
			<point x="333" y="533" type="line"/>
			<point x="298" y="457" type="line"/>
			<point x="298" y="433" type="line"/>
			<point x="232" y="433" type="line" smooth="yes"/>
			<point x="195" y="433"/>
			<point x="177" y="411"/>
			<point x="163" y="397" type="curve" smooth="yes"/>
			<point x="102" y="336" type="line" smooth="yes"/>
			<point x="88" y="322"/>
			<point x="66" y="303"/>
			<point x="66" y="266" type="curve" smooth="yes"/>
			<point x="66" y="167" type="line" smooth="yes"/>
			<point x="66" y="130"/>
			<point x="88" y="111"/>
		</contour>
		<contour>
			<point x="266" y="703" type="curve" smooth="yes"/>
			<point x="266" y="697" type="line"/>
			<point x="266" y="662"/>
			<point x="276" y="653"/>
			<point x="292" y="637" type="curve" smooth="yes"/>
			<point x="303" y="626" type="line" smooth="yes"/>
			<point x="317" y="612"/>
			<point x="326" y="600"/>
			<point x="363" y="600" type="curve" smooth="yes"/>
			<point x="369" y="600" type="line" smooth="yes"/>
			<point x="406" y="600"/>
			<point x="415" y="612"/>
			<point x="429" y="626" type="curve" smooth="yes"/>
			<point x="440" y="637" type="line" smooth="yes"/>
			<point x="456" y="653"/>
			<point x="466" y="662"/>
			<point x="466" y="697" type="curve" smooth="yes"/>
			<point x="466" y="703" type="line" smooth="yes"/>
			<point x="466" y="738"/>
			<point x="456" y="747"/>
			<point x="440" y="763" type="curve" smooth="yes"/>
			<point x="429" y="774" type="line" smooth="yes"/>
			<point x="415" y="788"/>
			<point x="406" y="800"/>
			<point x="369" y="800" type="curve" smooth="yes"/>
			<point x="363" y="800" type="line" smooth="yes"/>
			<point x="326" y="800"/>
			<point x="317" y="788"/>
			<point x="303" y="774" type="curve" smooth="yes"/>
			<point x="292" y="763" type="line" smooth="yes"/>
			<point x="276" y="747"/>
			<point x="266" y="738"/>
		</contour>
	</outline>
</glyph>
