<?xml version="1.0" encoding="UTF-8"?>
<glyph name="u" format="2">
	<advance width="732"/>
	<unicode hex="0075"/>
	<anchor x="532" y="10" name="ogonek"/>
	<anchor x="366" y="600" name="top"/>
	<anchor x="712" y="600" name="topright"/>
	<anchor x="366" y="0" name="bottom"/>
	<outline>
		<component base="n" xScale="-1" yScale="-1" xOffset="732" yOffset="600"/>
	</outline>
</glyph>
