<?xml version="1.0" encoding="UTF-8"?>
<glyph name="acute" format="2">
	<advance width="1864"/>
	<unicode hex="00B4"/>
	<outline>
		<component base="acutecomb" xOffset="1864"/>
	</outline>
	<lib>
		<dict>
			<key>com.schriftgestaltung.Glyphs.ComponentInfo</key>
			<array>
				<dict>
					<key>alignment</key>
					<integer>-1</integer>
					<key>index</key>
					<integer>0</integer>
					<key>name</key>
					<string>acutecomb</string>
				</dict>
			</array>
		</dict>
	</lib>
</glyph>
