<?xml version="1.0" encoding="UTF-8"?>
<glyph name="Eogonek" format="2">
	<advance width="1864"/>
	<unicode hex="0118"/>
	<outline>
		<component base="E"/>
		<component base="uni0328" xOffset="3070" yOffset="10"/>
	</outline>
</glyph>
