<?xml version="1.0" encoding="UTF-8"?>
<glyph name="r" format="2">
	<advance width="1864"/>
	<unicode hex="0072"/>
	<anchor x="932" y="600" name="top"/>
	<anchor x="118" y="0" name="bottom"/>
	<outline>
		<contour>
			<point x="200" y="0" type="line"/>
			<point x="200" y="400" type="line"/>
			<point x="266" y="467" type="line"/>
			<point x="1798" y="467" type="line"/>
			<point x="1798" y="600" type="line"/>
			<point x="233" y="600" type="line" smooth="yes"/>
			<point x="196" y="600"/>
			<point x="178" y="578"/>
			<point x="164" y="564" type="curve" smooth="yes"/>
			<point x="102" y="503" type="line" smooth="yes"/>
			<point x="88" y="490"/>
			<point x="66" y="470"/>
			<point x="66" y="434" type="curve"/>
			<point x="66" y="0" type="line"/>
		</contour>
	</outline>
</glyph>
