<?xml version="1.0" encoding="UTF-8"?>
<glyph name="ccedilla" format="2">
	<advance width="1332"/>
	<unicode hex="00E7"/>
	<outline>
		<component base="c"/>
		<component base="uni0327" xOffset="1699"/>
	</outline>
</glyph>
