<?xml version="1.0" encoding="UTF-8"?>
<glyph name="Ograve" format="2">
	<advance width="1332"/>
	<unicode hex="00D2"/>
	<outline>
		<component base="O"/>
		<component base="gravecomb" xOffset="1615"/>
	</outline>
</glyph>
