<?xml version="1.0" encoding="UTF-8"?>
<glyph name="uni0327" format="2">
	<advance width="0"/>
	<unicode hex="0327"/>
	<anchor x="-1033" y="0" name="_bottom"/>
	<anchor x="-965" y="-257" name="bottom"/>
	<outline>
		<contour>
			<point x="-900" y="-57" type="curve" smooth="yes"/>
			<point x="-965" y="-57" type="line"/>
			<point x="-965" y="50" type="line"/>
			<point x="-1099" y="50" type="line"/>
			<point x="-1099" y="-124" type="line"/>
			<point x="-965" y="-124" type="line"/>
			<point x="-965" y="-190" type="line"/>
			<point x="-1099" y="-190" type="line"/>
			<point x="-1099" y="-257" type="line"/>
			<point x="-900" y="-257" type="line" smooth="yes"/>
			<point x="-866" y="-257"/>
			<point x="-833" y="-224"/>
			<point x="-833" y="-190" type="curve" smooth="yes"/>
			<point x="-833" y="-124" type="line" smooth="yes"/>
			<point x="-833" y="-90"/>
			<point x="-866" y="-57"/>
		</contour>
	</outline>
</glyph>
